…
# Co-Review
Let's look at the co-review policy.



Only 87 out of 171 do have a 
coreview-policy.

The following table displays stemmed parts of the policies, sorted by propensity.

```
## # A tibble: 260 x 2
##    word           n
##    <chr>      <int>
##  1 review       135
##  2 manuscript    53
##  3 editor        44
##  4 confidenti    34
##  5 inform        25
##  6 colleagu      21
##  7 involv        17
##  8 journal       17
##  9 consult       15
## 10 discuss       15
## # … with 250 more rows
```
…
